Lorem
​
​
ipsum
​
​
dolor
​
​
sit
​
​
amet,
consectetuer
​
​
adipiscing
​
​
elit.
Azaihaznnzr
​
​
commodo
​
​
ligula
​
​
eget
​
​
dolor.
zefzefzegaergaergaergaergaerg
​
​
massa.
Cum
​
​
sociis
​
​
natoque
​
​
penatibus
​
​
et
​
​
magnis
​
​
dis
​
​
parturient
​
​
montes,
nascetur
​
​
ridiculus
​
​
mus.
Donec
​
​
quam
​
​
felis,
​
​
ultricies
​
​
nec,
​
​
pellentesque
​
​
eu,
​
​
pretium
​
​
quis,
​
​
sem.
Nulla
​
​
consequat
​
​
massa
​
​
quis
​
​
enim.
Donec
​
​
pede
​
​
justo,
​
​
fringilla
​
​
vel,
​
​
aliquet
​
​
nec,
​
​
vulputate
​
​
eget,
​
​
arcu.
